hyperparameter-tuning – hyperparamter-tuning
…
4. Define the search space

library(dials)
library(finetune)

Warning: package 'finetune' was built under R version 4.4.3

my.grid <- grid_space_filling(
  dials,
  size = 25
)

my.grid

# A tibble: 25 × 2
    penalty mixture
      <dbl>   <dbl>
 1 1   e-10  0.604 
 2 2.61e-10  0.327 
 3 6.81e-10  0.842 
 4 1.78e- 9  0.129 
 5 4.64e- 9  0.485 
 6 1.21e- 8  0.683 
 7 3.16e- 8  0.921 
 8 8.25e- 8  0.288 
 9 2.15e- 7  0.0896
10 5.62e- 7  0.525 
# ℹ 15 more rows
…
Amount of regularization: Most models cluster around very low penalty values and perform well across all metrics. As regularization increases performace drops sharply (RMSE and MAE jump up and R squared falls)

Proportion of Lasso Penalty: Performace is fairly consistent, but RMSE is lowest and R squared is highest between 0.25 and 0.5

6. Check the skill of the tuned model

collect_metrics(model_params)

# A tibble: 75 × 8
         penalty mixture .metric .estimator  mean     n std_err .config         
           <dbl>   <dbl> <chr>   <chr>      <dbl> <int>   <dbl> <chr>           
 1 0.000464       0.05   mae     standard   0.120    10 0.00448 Preprocessor1_M…
 2 0.000464       0.05   rmse    standard   0.173    10 0.00995 Preprocessor1_M…
 3 0.000464       0.05   rsq     standard   0.988    10 0.00144 Preprocessor1_M…
 4 0.000000215    0.0896 mae     standard   0.120    10 0.00430 Preprocessor1_M…
 5 0.000000215    0.0896 rmse    standard   0.172    10 0.00985 Preprocessor1_M…
 6 0.000000215    0.0896 rsq     standard   0.988    10 0.00142 Preprocessor1_M…
 7 0.00000000178  0.129  mae     standard   0.120    10 0.00441 Preprocessor1_M…
 8 0.00000000178  0.129  rmse    standard   0.173    10 0.0100  Preprocessor1_M…
 9 0.00000000178  0.129  rsq     standard   0.988    10 0.00138 Preprocessor1_M…
10 0.0562         0.169  mae     standard   0.120    10 0.00453 Preprocessor1_M…
# ℹ 65 more rows

collect_metrics(model_params) %>%
  filter(.metric == "mae") %>%
  arrange(mean)

# A tibble: 25 × 8
         penalty mixture .metric .estimator  mean     n std_err .config         
           <dbl>   <dbl> <chr>   <chr>      <dbl> <int>   <dbl> <chr>           
 1 0.00825        0.723  mae     standard   0.110    10 0.00430 Preprocessor1_M…
 2 0.00316        0.446  mae     standard   0.115    10 0.00405 Preprocessor1_M…
 3 0.000000215    0.0896 mae     standard   0.120    10 0.00430 Preprocessor1_M…
 4 0.000464       0.05   mae     standard   0.120    10 0.00448 Preprocessor1_M…
 5 0.00000000178  0.129  mae     standard   0.120    10 0.00441 Preprocessor1_M…
 6 0.00121        0.248  mae     standard   0.120    10 0.00421 Preprocessor1_M…
 7 0.0562         0.169  mae     standard   0.120    10 0.00453 Preprocessor1_M…
 8 0.00001        0.208  mae     standard   0.121    10 0.00427 Preprocessor1_M…
 9 0.0000000001   0.604  mae     standard   0.121    10 0.00426 Preprocessor1_M…
10 0.0000261      0.406  mae     standard   0.121    10 0.00433 Preprocessor1_M…
# ℹ 15 more rows
…
